…
``` r
total_steps_per_date <- activity %>% 
  group_by(date) %>% 
  summarize(total_steps = sum(steps, na.rm = TRUE))

print(total_steps_per_date)
```

```
## # A tibble: 61 × 2
##    date       total_steps
##    <date>           <dbl>
##  1 2012-10-01           0
##  2 2012-10-02         126
##  3 2012-10-03       11352
##  4 2012-10-04       12116
##  5 2012-10-05       13294
##  6 2012-10-06       15420
##  7 2012-10-07       11015
##  8 2012-10-08           0
##  9 2012-10-09       12811
## 10 2012-10-10        9900
## # ℹ 51 more rows
```
…
## Calculate and report the mean and median of the total number of steps taken per day


``` r
activity %>% 
  group_by(date) %>% 
  summarize(total_steps_mean = mean(steps, na.rm = TRUE),
            total_steps_median = median(steps, na.rm = TRUE))
```

```
## # A tibble: 61 × 3
##    date       total_steps_mean total_steps_median
##    <date>                <dbl>              <dbl>
##  1 2012-10-01          NaN                     NA
##  2 2012-10-02            0.438                  0
##  3 2012-10-03           39.4                    0
##  4 2012-10-04           42.1                    0
##  5 2012-10-05           46.2                    0
##  6 2012-10-06           53.5                    0
##  7 2012-10-07           38.2                    0
##  8 2012-10-08          NaN                     NA
##  9 2012-10-09           44.5                    0
## 10 2012-10-10           34.4                    0
## # ℹ 51 more rows
```
…
## Create a new dataset that is equal to the original dataset but with the missing data filled in.
Here, I try to fill in the missing values using the mean for that day.
If all the steps in that day are missing, I filled it as 0.


``` r
activity_filled <- activity %>% 
  group_by(date) %>% 
  mutate(steps = ifelse(is.na(steps), coalesce(mean(steps, na.rm = TRUE), 0), steps))
print(activity_filled)
```

```
## # A tibble: 17,568 × 3
## # Groups:   date [61]
##    steps date       interval
##    <dbl> <date>        <dbl>
##  1     0 2012-10-01        0
##  2     0 2012-10-01        5
##  3     0 2012-10-01       10
##  4     0 2012-10-01       15
##  5     0 2012-10-01       20
##  6     0 2012-10-01       25
##  7     0 2012-10-01       30
##  8     0 2012-10-01       35
##  9     0 2012-10-01       40
## 10     0 2012-10-01       45
## # ℹ 17,558 more rows
```
…
``` r
#Mean and median
activity_filled %>% 
  group_by(date) %>% 
  summarize(total_steps_mean = mean(steps, na.rm = TRUE),
            total_steps_median = median(steps, na.rm = TRUE))
```

```
## # A tibble: 61 × 3
##    date       total_steps_mean total_steps_median
##    <date>                <dbl>              <dbl>
##  1 2012-10-01            0                      0
##  2 2012-10-02            0.438                  0
##  3 2012-10-03           39.4                    0
##  4 2012-10-04           42.1                    0
##  5 2012-10-05           46.2                    0
##  6 2012-10-06           53.5                    0
##  7 2012-10-07           38.2                    0
##  8 2012-10-08            0                      0
##  9 2012-10-09           44.5                    0
## 10 2012-10-10           34.4                    0
## # ℹ 51 more rows
```
…
# Are there differences in activity patterns between weekdays and weekends?

## Create a new factor variable in the dataset with two levels – “weekday” and “weekend” indicating whether a given date is a weekday or weekend day.


``` r
activity_weekday <- activity %>% 
  mutate(weekday = weekdays(date)) %>% 
  mutate(weekday_or_end = ifelse(weekday %in% c("Saturday", "Sunday"), "weekend", "weekday"))

print(activity_weekday)
```

```
## # A tibble: 17,568 × 5
##    steps date       interval weekday weekday_or_end
##    <dbl> <date>        <dbl> <chr>   <chr>         
##  1    NA 2012-10-01        0 Monday  weekday       
##  2    NA 2012-10-01        5 Monday  weekday       
##  3    NA 2012-10-01       10 Monday  weekday       
##  4    NA 2012-10-01       15 Monday  weekday       
##  5    NA 2012-10-01       20 Monday  weekday       
##  6    NA 2012-10-01       25 Monday  weekday       
##  7    NA 2012-10-01       30 Monday  weekday       
##  8    NA 2012-10-01       35 Monday  weekday       
##  9    NA 2012-10-01       40 Monday  weekday       
## 10    NA 2012-10-01       45 Monday  weekday       
## # ℹ 17,558 more rows
```
…
